BST 270 Individual Project
…
#create a new dataset that only contains values corresponding to January 17th, 2021
state_cases_final <- state_cases_per_day %>% filter(date == as.Date("2021-01-17"))

Now that we have wrangled our data, we can drop the unnecessary columns in order to create our table.

table2 <- state_cases_final[c("state", "cases", "new_cases_7dayavg")]
colnames(table2) <- c("state", "total cases", "daily average in last 7 days")
table2

## # A tibble: 55 x 3
## # Groups:   state [55]
##    state                `total cases` `daily average in last 7 days`
##    <chr>                        <int>                          <dbl>
##  1 Alabama                     422598                           2957
##  2 Alaska                       51630                            242
##  3 Arizona                     673882                           7905
##  4 Arkansas                    271154                           2297
##  5 California                 3006583                          39580
##  6 Colorado                    376921                           1986
##  7 Connecticut                 223422                           2490
##  8 Delaware                     70294                            717
##  9 District of Columbia         33851                            294
## 10 Florida                    1571271                          13467
## #  with 45 more rows
…
